Game of Thrones
…
got_df <- data.frame(got_text) %>% 
  mutate(text_full = str_split(got_text, pattern = '\\n')) %>% 
  unnest(text_full) %>% 
  mutate(text_full = str_trim(text_full))

#Get the tokens (individual words) in tidy format I Use
tidytext::unnest_tokens() (which pulls from the
tokenizer) package, to split columns into tokens. I am
interested in words, so that’s the token we’ll use:

got_tokens <- got_df %>% 
  unnest_tokens(word, text_full)
got_tokens

## # A tibble: 297,814 × 2
##    got_text                                                                word 
##    <chr>                                                                   <chr>
##  1 "                  A GAME OF THRONES\n\n\n            Book One of A So… a    
##  2 "                  A GAME OF THRONES\n\n\n            Book One of A So… game 
##  3 "                  A GAME OF THRONES\n\n\n            Book One of A So… of   
##  4 "                  A GAME OF THRONES\n\n\n            Book One of A So… thro…
##  5 "                  A GAME OF THRONES\n\n\n            Book One of A So… book 
##  6 "                  A GAME OF THRONES\n\n\n            Book One of A So… one  
##  7 "                  A GAME OF THRONES\n\n\n            Book One of A So… of   
##  8 "                  A GAME OF THRONES\n\n\n            Book One of A So… a    
##  9 "                  A GAME OF THRONES\n\n\n            Book One of A So… song 
## 10 "                  A GAME OF THRONES\n\n\n            Book One of A So… of   
## # ℹ 297,804 more rows

#Let’s count the words!

got_wc <- got_tokens %>% 
  count(word) %>% 
  arrange(-n)
got_wc

## # A tibble: 11,826 × 2
##    word      n
##    <chr> <int>
##  1 the   17988
##  2 and    8997
##  3 to     6640
##  4 a      6461
##  5 of     6200
##  6 he     5166
##  7 his    5161
##  8 was    3904
##  9 her    3659
## 10 you    3267
## # ℹ 11,816 more rows
…
# There are almost 2000 unique words 
length(unique(got_no_numeric$word))

## [1] 11209

# We probably don't want to include them all in a word cloud. Let's filter to only include the top 100 most frequent?
got_top100 <- got_no_numeric %>% 
  count(word) %>% 
  arrange(-n) %>% 
  head(100)

got_top100

## # A tibble: 100 × 2
##    word       n
##    <chr>  <int>
##  1 lord    1341
##  2 ser     1023
##  3 jon      787
##  4 ned      743
##  5 tyrion   591
##  6 eyes     567
##  7 hand     567
##  8 king     542
##  9 father   512
## 10 told     504
## # ℹ 90 more rows
…
“The three general-purpose lexicons are

AFINN from Finn Årup Nielsen,

bing from Bing Liu and collaborators, and

nrc from Saif Mohammad and Peter Turney

“afinn”: Words ranked from -5 (very negative) to +5 (very
positive)

get_sentiments(lexicon = "afinn")

## # A tibble: 2,477 × 2
##    word       value
##    <chr>      <dbl>
##  1 abandon       -2
##  2 abandoned     -2
##  3 abandons      -2
##  4 abducted      -2
##  5 abduction     -2
##  6 abductions    -2
##  7 abhor         -3
##  8 abhorred      -3
##  9 abhorrent     -3
## 10 abhors        -3
## # ℹ 2,467 more rows

# Note: may be prompted to download (yes)

# Let's look at the pretty positive words:
afinn_pos <- get_sentiments("afinn") %>% 
  filter(value %in% c(3,4,5))

# Do not look at negative words in class. 
afinn_pos

## # A tibble: 222 × 2
##    word         value
##    <chr>        <dbl>
##  1 admire           3
##  2 admired          3
##  3 admires          3
##  4 admiring         3
##  5 adorable         3
##  6 adore            3
##  7 adored           3
##  8 adores           3
##  9 affection        3
## 10 affectionate     3
## # ℹ 212 more rows

bing: binary, “positive” or “negative”

get_sentiments(lexicon = "bing")

## # A tibble: 6,786 × 2
##    word        sentiment
##    <chr>       <chr>    
##  1 2-faces     negative 
##  2 abnormal    negative 
##  3 abolish     negative 
##  4 abominable  negative 
##  5 abominably  negative 
##  6 abominate   negative 
##  7 abomination negative 
##  8 abort       negative 
##  9 aborted     negative 
## 10 aborts      negative 
## # ℹ 6,776 more rows

Now nrc:

get_sentiments(lexicon = "nrc")

## # A tibble: 13,872 × 2
##    word        sentiment
##    <chr>       <chr>    
##  1 abacus      trust    
##  2 abandon     fear     
##  3 abandon     negative 
##  4 abandon     sadness  
##  5 abandoned   anger    
##  6 abandoned   fear     
##  7 abandoned   negative 
##  8 abandoned   sadness  
##  9 abandonment anger    
## 10 abandonment fear     
## # ℹ 13,862 more rows
…
Plot shows mostly negative words

Investigate some of the words in a bit more depth:

# What are these '-5' words?
got_afinn_m5 <- got_afinn %>% 
  filter(value == -5)

got_afinn_m5

## # A tibble: 137 × 2
##    word    value
##    <chr>   <dbl>
##  1 bastard    -5
##  2 bastard    -5
##  3 bitch      -5
##  4 bitch      -5
##  5 bastard    -5
##  6 bastard    -5
##  7 bitch      -5
##  8 bitch      -5
##  9 bitch      -5
## 10 bitch      -5
## # ℹ 127 more rows
…
Mean score is slightly negative aswell as the median score.

NRC lexicon for sentiment analysis

We can use the NRC lexicon to start “binning” text by the feelings
they’re typically associated with. As above, we’ll use inner_join() to
combine the GOT non-stopword text with the nrc lexicon:

got_nrc <- got_stop %>% 
  inner_join(get_sentiments("nrc"))

got_nrc

## # A tibble: 63,312 × 2
##    word     sentiment   
##    <chr>    <chr>       
##  1 fire     fear        
##  2 prologue anticipation
##  3 stark    negative    
##  4 stark    trust       
##  5 prologue anticipation
##  6 start    anticipation
##  7 grow     anticipation
##  8 grow     joy         
##  9 grow     positive    
## 10 grow     trust       
## # ℹ 63,302 more rows
…
