Are we more civilized today?
…
Start a ggplot plotting midyear on x axis and duration on y
axis

Try geom_smooth() for geometry

Provide meaningful labels and a title

How would you characterize the trend compared to the homicides
above?

# YOUR CODE HERE:
library(tidyverse)
read_csv2("data/Kongerækken (2)-kopi.csv")

## # A tibble: 53 × 10
##    Name    day_of_birth month_of_birth year_of_birth day_of_death month_of_death
##    <chr>          <dbl>          <dbl>         <dbl>        <dbl>          <dbl>
##  1 Gorm d…           NA             NA           908           NA             NA
##  2 Harald…           NA             NA            NA           NA             NA
##  3 Svend …           NA             NA            NA           NA             NA
##  4 Harald…           NA             NA            NA           NA             NA
##  5 Knud (…           NA             NA           995           NA             NA
##  6 Hardek…           NA             NA          1020           NA             NA
##  7 Magnus…           NA             NA          1024           NA             NA
##  8 Svend …           NA             NA            NA           28              4
##  9 Harald…           NA             NA            NA           NA             NA
## 10 Knud (…           NA             NA           995           10              7
## # ℹ 43 more rows
## # ℹ 4 more variables: year_of_death <dbl>, start_of_reign <dbl>,
## #   end_of_reign <dbl>, duration_of_rule <dbl>
…
